%YAML 1.1
%TAG !u! tag:unity3d.com,2011:
--- !u!21 &2100000
Material:
  serializedVersion: 3
  m_ObjectHideFlags: 0
  m_PrefabParentObject: {fileID: 0}
  m_PrefabInternal: {fileID: 0}
  m_Name: Green (Thruster) (Flame)
  m_Shader: {fileID: 4800000, guid: 754bf080e26db3d498b0f0ad72611207, type: 3}
  m_ShaderKeywords: []
  m_SavedProperties:
    serializedVersion: 2
    m_TexEnvs:
      data:
        first:
          name: _MainTex
        second:
          m_Texture: {fileID: 2800000, guid: 423f8eed26f1286419d2ac76a77ae666, type: 3}
          m_Scale: {x: 1, y: 1}
          m_Offset: {x: 0, y: 0}
      data:
        first:
          name: thrusterTexture
        second:
          m_Texture: {fileID: 2800000, guid: 423f8eed26f1286419d2ac76a77ae666, type: 3}
          m_Scale: {x: 1, y: 1}
          m_Offset: {x: 0, y: 0}
    m_Floats:
      data:
        first:
          name: _Cutoff
        second: .5
      data:
        first:
          name: thrusterFalloff
        second: 1
    m_Colors:
      data:
        first:
          name: _Color
        second: {r: 1, g: 1, b: 1, a: 1}
