%YAML 1.1
%TAG !u! tag:unity3d.com,2011:
--- !u!129 &1
PlayerSettings:
  m_ObjectHideFlags: 0
  serializedVersion: 2
  AndroidProfiler: 0
  defaultScreenOrientation: 4
  targetDevice: 1
  targetGlesGraphics: 1
  targetResolution: 4
  accelerometerFrequency: 60
  companyName: DefaultCompany
  productName: SkyUnityTest
  defaultCursor: {fileID: 0}
  cursorHotspot: {x: 0, y: 0}
  defaultScreenWidth: 1024
  defaultScreenHeight: 768
  defaultScreenWidthWeb: 960
  defaultScreenHeightWeb: 600
  m_RenderingPath: 1
  m_ActiveColorSpace: 0
  m_MTRendering: 1
  m_UseDX11: 0
  iosShowActivityIndicatorOnLoading: -1
  androidShowActivityIndicatorOnLoading: -1
  displayResolutionDialog: 1
  allowedAutorotateToPortrait: 0
  allowedAutorotateToPortraitUpsideDown: 0
  allowedAutorotateToLandscapeRight: 1
  allowedAutorotateToLandscapeLeft: 1
  useOSAutorotation: 1
  use32BitDisplayBuffer: 1
  use24BitDepthBuffer: 0
  defaultIsFullScreen: 1
  runInBackground: 0
  captureSingleScreen: 0
  Override IPod Music: 0
  enableHWStatistics: 1
  usePlayerLog: 1
  stripPhysics: 0
  resizableWindow: 0
  useMacAppStoreValidation: 0
  xboxSkinOnGPU: 1
  xboxEnableAvatar: 0
  xboxEnableKinect: 0
  xboxEnableKinectAutoTracking: 0
  xboxEnableFitness: 0
  macFullscreenMode: 2
  xboxSpeechDB: 0
  xboxEnableHeadOrientation: 0
  wiiHio2Usage: -1
  wiiLoadingScreenRectPlacement: 0
  wiiLoadingScreenBackground: {r: 1, g: 1, b: 1, a: 1}
  wiiLoadingScreenPeriod: 1000
  wiiLoadingScreenFileName: 
  wiiLoadingScreenRect:
    serializedVersion: 2
    x: 0
    y: 0
    width: 0
    height: 0
  m_SupportedAspectRatios:
    4:3: 1
    5:4: 1
    16:10: 1
    16:9: 1
    Others: 1
  iPhoneBundleIdentifier: net.inteza.SolarSystem
  iPhoneBundleVersion: 1.0
  AndroidBundleVersionCode: 1
  AndroidMinSdkVersion: 6
  AndroidPreferredInstallLocation: 1
  aotOptions: 
  apiCompatibilityLevel: 1
  iPhoneStrippingLevel: 0
  iPhoneScriptCallOptimization: 0
  ForceInternetPermission: 0
  ForceSDCardPermission: 0
  CreateWallpaper: 0
  APKExpansionFiles: 0
  StripUnusedMeshComponents: 0
  iPhoneSdkVersion: 988
  iPhoneTargetOSVersion: 22
  uIPrerenderedIcon: 0
  uIRequiresPersistentWiFi: 0
  uIStatusBarHidden: 1
  uIExitOnSuspend: 0
  uIStatusBarStyle: 0
  iPhoneSplashScreen: {fileID: 0}
  iPhoneHighResSplashScreen: {fileID: 0}
  iPhoneTallHighResSplashScreen: {fileID: 0}
  iPadPortraitSplashScreen: {fileID: 0}
  iPadHighResPortraitSplashScreen: {fileID: 0}
  iPadLandscapeSplashScreen: {fileID: 0}
  iPadHighResLandscapeSplashScreen: {fileID: 0}
  AndroidTargetDevice: 0
  AndroidSplashScreenScale: 0
  AndroidKeystoreName: 
  AndroidKeyaliasName: 
  resolutionDialogBanner: {fileID: 0}
  m_BuildTargetIcons:
  - m_BuildTarget: 
    m_Icons:
    - m_Icon: {fileID: 0}
      m_Size: 128
  m_BuildTargetBatching:
  - m_BuildTarget: iPhone
    m_StaticBatching: 1
    m_DynamicBatching: 1
  webPlayerTemplate: APPLICATION:Default
  m_TemplateCustomTags: {}
  wiiRegion: 1
  wiiGameCode: RABA
  wiiGameVersion: 
  wiiCompanyCode: ZZ
  wiiSupportsNunchuk: 0
  wiiSupportsClassicController: 0
  wiiSupportsBalanceBoard: 0
  wiiSupportsMotionPlus: 0
  wiiControllerCount: 1
  wiiFloatingPointExceptions: 0
  wiiScreenCrashDumps: 1
  XboxTitleId: 
  XboxImageXexPath: 
  XboxSpaPath: 
  XboxGenerateSpa: 0
  XboxDeployKinectResources: 0
  XboxSplashScreen: {fileID: 0}
  xboxEnableSpeech: 0
  xboxAdditionalTitleMemorySize: 0
  xboxDeployKinectHeadOrientation: 0
  xboxDeployKinectHeadPosition: 0
  ps3TitleConfigPath: 
  ps3DLCConfigPath: 
  ps3ThumbnailPath: 
  ps3BackgroundPath: 
  ps3SoundPath: 
  ps3TrophyCommId: 
  ps3TrophyPackagePath: 
  ps3BootCheckMaxSaveGameSizeKB: 128
  ps3TrophyCommSig: 
  ps3SaveGameSlots: 1
  ps3TrialMode: 0
  flashStrippingLevel: 2
  scriptingDefineSymbols:
    data:
      first: 4
      second: 4
    data:
      first: 7
      second: 4
  metroPackageName: SkyUnityTest
  metroPackageLogo: 
  metroPackageVersion: 
  metroCertificatePath: 
  metroCertificatePassword: 
  metroCertificateSubject: 
  metroCertificateIssuer: 
  metroCertificateNotAfter: 0000000000000000
  metroApplicationDescription: SkyUnityTest
  metroTileLogo: 
  metroTileWideLogo: 
  metroTileSmallLogo: 
  metroTileShortName: 
  metroCommandLineArgsFile: 
  metroTileShowName: 0
  metroTileForegroundText: 1
  metroTileBackgroundColor: {r: 0, g: 0, b: 0, a: 1}
  metroSplashScreenImage: 
  metroSplashScreenBackgroundColor: {r: 0, g: 0, b: 0, a: 1}
  metroSplashScreenUseBackgroundColor: 0
  metroCapabilities: {}
  firstStreamedLevelWithResources: 0
  unityRebuildLibraryVersion: 9
  unityForwardCompatibleVersion: 37
  unityStandardAssetsVersion: 0
